{
    "/htdocs/app_/build/app.js": "/htdocs/app_/build/app.js",
    "/htdocs/app_/assets/styles/components.css": "/htdocs/app_/assets/styles/components.css",
    "/htdocs/app_/assets/styles/buefy.css": "/htdocs/app_/assets/styles/buefy.css",
    "/htdocs/public/build/public_app.js": "/htdocs/public/build/public_app.js",
    "/htdocs/app_/build/all.css": "/htdocs/app_/build/all.css",
    "/htdocs/app_/build/global_all.js": "/htdocs/app_/build/global_all.js"
}
